<?xml version="1.0" encoding="iso-8859-1"?>
<!-- Generator: Adobe Illustrator 19.0.0, SVG Export Plug-In . SVG Version: 6.00 Build 0)  -->
<svg xmlns="http://www.w3.org/2000/svg" xmlns:xlink="http://www.w3.org/1999/xlink" version="1.1" id="Capa_1" x="0px" y="0px" viewBox="0 0 462.5 462.5" style="enable-background:new 0 0 462.5 462.5;" xml:space="preserve" width="512" height="512">
<g>
	<path style="fill:#D19884;" d="M443.75,60h-425c-8.28,0-15,6.72-15,15s6.72,15,15,15h425c8.28,0,15-6.72,15-15S452.03,60,443.75,60   z"/>
	<rect x="46.94" y="30" style="fill:#FFD572;" width="30" height="197.5"/>
	<rect x="76.94" y="30" style="fill:#FFB914;" width="30" height="197.5"/>
	<rect x="106.94" y="30" style="fill:#FFD572;" width="30" height="197.5"/>
	<path style="fill:#19ABBF;" d="M3.75,227.5c0,125.64,101.86,227.5,227.5,227.5s227.5-101.86,227.5-227.5H3.75z"/>
	<path style="fill:#19ABBF;" d="M298.75,462.5h-135c-4.142,0-7.5-3.357-7.5-7.5s3.358-7.5,7.5-7.5h135c4.143,0,7.5,3.357,7.5,7.5   S302.893,462.5,298.75,462.5z"/>
	<circle style="fill:#0B7786;" cx="118.524" cy="369.25" r="7.5"/>
	<circle style="fill:#0B7786;" cx="88.524" cy="339.25" r="7.5"/>
	<path style="fill:#FFBC99;" d="M443.75,0h-425c-8.28,0-15,6.72-15,15s6.72,15,15,15h425c8.28,0,15-6.72,15-15S452.03,0,443.75,0z"/>
</g>















</svg>
